%YAML 1.1
%TAG !u! tag:unity3d.com,2011:
--- !u!1045 &1
EditorBuildSettings:
  m_ObjectHideFlags: 0
  serializedVersion: 2
  m_Scenes:
  - enabled: 1
    path: Assets/Scenes/Menu.unity
    guid: e149515296ef0b74eb37411db079b922
  - enabled: 1
    path: Assets/Scenes/Environment.unity
    guid: ea1cd3ccc8843c141a735cc701ca85bc
  m_configObjects: {}
